## Autogenerated by Scribe. DO NOT MODIFY.

name: 'Inventory Logs'
description: |-

  APIs for managing and retrieving inventory logs
endpoints:
  -
    httpMethods:
      - GET
    uri: api/v1/inventory/logs
    metadata:
      groupName: 'Inventory Logs'
      groupDescription: |-

        APIs for managing and retrieving inventory logs
      subgroup: ''
      subgroupDescription: ''
      title: 'List Inventory Logs'
      description: |-
        Retrieves a paginated list of inventory logs for a specific tenant.
        These logs include changes in inventory, restocks, orders, and other related events.
      authenticated: true
      custom: []
    headers:
      X-API-KEY: '{YOUR_API_KEY}'
      Content-Type: application/json
      Accept: application/json
    urlParameters: []
    cleanUrlParameters: []
    queryParameters:
      start_date:
        name: start_date
        description: 'The start date for filtering logs. Format: Y-m-d.'
        required: false
        example: '2024-01-01'
        type: string
        enumValues: []
        exampleWasSpecified: true
        nullable: false
        custom: []
      end_date:
        name: end_date
        description: 'The end date for filtering logs. Format: Y-m-d.'
        required: false
        example: '2024-12-31'
        type: string
        enumValues: []
        exampleWasSpecified: true
        nullable: false
        custom: []
      event_type:
        name: event_type
        description: 'Filter logs by event type.'
        required: false
        example: restock
        type: string
        enumValues: []
        exampleWasSpecified: true
        nullable: false
        custom: []
      page:
        name: page
        description: 'The page number for pagination.'
        required: false
        example: 1
        type: integer
        enumValues: []
        exampleWasSpecified: true
        nullable: false
        custom: []
      per_page:
        name: per_page
        description: 'The number of logs per page. Default: 15.'
        required: false
        example: 10
        type: integer
        enumValues: []
        exampleWasSpecified: true
        nullable: false
        custom: []
    cleanQueryParameters:
      start_date: '2024-01-01'
      end_date: '2024-12-31'
      event_type: restock
      page: 1
      per_page: 10
    bodyParameters:
      per_page:
        name: per_page
        description: 'Must be at least 1. Must not be greater than 100.'
        required: false
        example: 5
        type: integer
        enumValues: []
        exampleWasSpecified: false
        nullable: true
        custom: []
      product_id:
        name: product_id
        description: 'The <code>id</code> of an existing record in the products table.'
        required: false
        example: 20
        type: integer
        enumValues: []
        exampleWasSpecified: false
        nullable: true
        custom: []
      warehouse_id:
        name: warehouse_id
        description: 'The <code>id</code> of an existing record in the warehouses table.'
        required: false
        example: 17
        type: integer
        enumValues: []
        exampleWasSpecified: false
        nullable: true
        custom: []
      type:
        name: type
        description: ''
        required: false
        example: order
        type: string
        enumValues:
          - order
          - restock
        exampleWasSpecified: false
        nullable: true
        custom: []
      date_from:
        name: date_from
        description: 'Must be a valid date.'
        required: false
        example: '2024-12-19T23:37:13'
        type: string
        enumValues: []
        exampleWasSpecified: false
        nullable: true
        custom: []
      date_to:
        name: date_to
        description: 'Must be a valid date. Must be a date after or equal to <code>date_from</code>.'
        required: false
        example: '2042-03-24'
        type: string
        enumValues: []
        exampleWasSpecified: false
        nullable: true
        custom: []
    cleanBodyParameters:
      per_page: 5
      product_id: 20
      warehouse_id: 17
      type: order
      date_from: '2024-12-19T23:37:13'
      date_to: '2042-03-24'
    fileParameters: []
    responses:
      -
        status: 200
        content: |-
          {
            "success": true,
            "data": [
              {
                "id": 1,
                "tenant_id": 1,
                "product_id": 1,
                "warehouse_id": 1,
                "event_type": "restock",
                "quantity": 10,
                "created_at": "2024-12-18T00:00:00.000000Z"
              }
            ],
            "meta": {
              "current_page": 1,
              "last_page": 3,
              "per_page": 15,
              "total": 45
            },
            "message": "Inventory logs retrieved successfully"
          }
        headers: []
        description: success
        custom: []
      -
        status: 422
        content: |-
          {
            "success": false,
            "message": "The start_date field must be a valid date."
          }
        headers: []
        description: 'validation error'
        custom: []
    responseFields: []
    auth:
      - headers
      - X-API-KEY
      - VvZE8a1ec645Pkdh3bg6fDa
    controller: null
    method: null
    route: null
    custom: []
